{
  "db_name": "PostgreSQL",
  "query": "\nSELECT\n\ta.player_id,\n\tARRAY[\n\t    COUNT(*),\n        COUNT(*) FILTER (WHERE g.game_id = 1),\n        COUNT(*) FILTER (WHERE g.game_id = 2),\n        COUNT(*) FILTER (WHERE g.game_id = 3)\n    ] as \"submissions!\"\nFROM public.score_entry se\nJOIN public.MODE m USING (mode_id)\nJOIN public.game g USING (game_id)\nJOIN public.account a USING (player_id)\nWHERE\n\tpublic.is_ranked_score_status(se.status) AND\n\tm.mode_id NOT IN (SELECT mode_id FROM public.mode_tag mt WHERE mt.tag_name = 'EVENT')\nGROUP BY a.player_id\nORDER BY COUNT(*) DESC;\n            ",
  "describe": {
    "columns": [
      {
        "ordinal": 0,
        "name": "player_id",
        "type_info": "Int4"
      },
      {
        "ordinal": 1,
        "name": "submissions!",
        "type_info": "Int8Array"
      }
    ],
    "parameters": {
      "Left": []
    },
    "nullable": [
      false,
      null
    ]
  },
  "hash": "ebab6b9ea317216ffbe28bd8b29bcf15b0919948f6f576533887bf130e303705"
}
