{
  "db_name": "PostgreSQL",
  "query": "DELETE FROM public.sessions WHERE user_id = $1 AND session_key = $2",
  "describe": {
    "columns": [],
    "parameters": {
      "Left": [
        "Int4",
        "Uuid"
      ]
    },
    "nullable": []
  },
  "hash": "aa4a44b8ac28b2016e4ef5d0bb30ea9ed8f02d99d6b46cb34fdadf5340404ddf"
}
