{
  "db_name": "PostgreSQL",
  "query": "SELECT\n    player_id as \"player_id!: i32\",\n    player_name as \"player_name!\",\n    email,\n    password as \"password!\",\n    player_role as \"player_role!: Role\",\n    avatar_file,\n    active as \"active!: bool\",\n    l.location_id as \"location_id?\",\n    l.alpha_2 as \"location?\",\n    created_at as \"created_at!\",\n    updated_at as \"updated_at!\"\nFROM public.account a\nLEFT JOIN location l ON a.location_id = l.location_id",
  "describe": {
    "columns": [
      {
        "ordinal": 0,
        "name": "player_id!: i32",
        "type_info": "Int4"
      },
      {
        "ordinal": 1,
        "name": "player_name!",
        "type_info": "Varchar"
      },
      {
        "ordinal": 2,
        "name": "email",
        "type_info": "Varchar"
      },
      {
        "ordinal": 3,
        "name": "password!",
        "type_info": "Varchar"
      },
      {
        "ordinal": 4,
        "name": "player_role!: Role",
        "type_info": {
          "Custom": {
            "name": "player_role_type",
            "kind": {
              "Enum": [
                "banned",
                "user",
                "verifier",
                "admin"
              ]
            }
          }
        }
      },
      {
        "ordinal": 5,
        "name": "avatar_file",
        "type_info": "Varchar"
      },
      {
        "ordinal": 6,
        "name": "active!: bool",
        "type_info": "Bool"
      },
      {
        "ordinal": 7,
        "name": "location_id?",
        "type_info": "Int4"
      },
      {
        "ordinal": 8,
        "name": "location?",
        "type_info": "Bpchar"
      },
      {
        "ordinal": 9,
        "name": "created_at!",
        "type_info": "Timestamptz"
      },
      {
        "ordinal": 10,
        "name": "updated_at!",
        "type_info": "Timestamptz"
      }
    ],
    "parameters": {
      "Left": []
    },
    "nullable": [
      false,
      false,
      true,
      false,
      false,
      true,
      false,
      true,
      true,
      false,
      false
    ]
  },
  "hash": "7f2f3caab61ee173aefeb932868853087809a063482654eb569f20e4cdad7998"
}
