{
  "db_name": "PostgreSQL",
  "query": "DELETE FROM account_badge ab WHERE ab.account_id = $1 AND ab.badge_id = $2",
  "describe": {
    "columns": [],
    "parameters": {
      "Left": [
        "Int4",
        "Int4"
      ]
    },
    "nullable": []
  },
  "hash": "a354e9575aed7419b54004289a896988ce995fb4d14b7ba56d449fcfd03ca88f"
}
