{
  "db_name": "PostgreSQL",
  "query": "DELETE FROM public.score_vote WHERE score_id = $1 AND account_id = $2",
  "describe": {
    "columns": [],
    "parameters": {
      "Left": [
        "Int4",
        "Int4"
      ]
    },
    "nullable": []
  },
  "hash": "682ee8c5bb7ee42de631fe9ccfffedcd01dab44f23cb76d3e3a17ed9b43cf240"
}
