{
  "db_name": "PostgreSQL",
  "query": "SELECT rival_id, player_id, rival_player_id FROM public.rival WHERE player_id = $1 ORDER BY created_at",
  "describe": {
    "columns": [
      {
        "ordinal": 0,
        "name": "rival_id",
        "type_info": "Int4"
      },
      {
        "ordinal": 1,
        "name": "player_id",
        "type_info": "Int4"
      },
      {
        "ordinal": 2,
        "name": "rival_player_id",
        "type_info": "Int4"
      }
    ],
    "parameters": {
      "Left": [
        "Int4"
      ]
    },
    "nullable": [
      false,
      false,
      false
    ]
  },
  "hash": "5a1ae7f2a0bc22d33b14f0560d6ad28d5505b1e8482e5f5efea8d9f0e0630f3f"
}
