{
  "db_name": "PostgreSQL",
  "query": "\nselect\n    s.score_id as \"score_id!\",\n    s.player_id as \"player_id!\",\n    g.game_id as \"game_id!\",\n    mo.mode_id as \"mode_id!\",\n    r.ranking as \"ranking?\",\n    r.ranking_points as \"ranking_points?\"\nFROM public.score_entry__as_of2(\n        CASE WHEN $1::TIMESTAMPTZ IS NOT NULL THEN $1 ELSE CURRENT_TIMESTAMP END\n     ) s\nJOIN public.player p USING (player_id)\nJOIN public.mode mo USING (mode_id)\nJOIN public.game g USING (game_id)\nLEFT JOIN public.mode_ranking(NULL, CASE WHEN $1::TIMESTAMPTZ IS NOT NULL THEN $1 ELSE CURRENT_TIMESTAMP END) r\n    USING (score_id)\nWHERE p.player_id = $2 OR p.player_name ILIKE $3\nORDER BY g.game_id, mo.mode_id, s.rank_order_key;",
  "describe": {
    "columns": [
      {
        "ordinal": 0,
        "name": "score_id!",
        "type_info": "Int4"
      },
      {
        "ordinal": 1,
        "name": "player_id!",
        "type_info": "Int4"
      },
      {
        "ordinal": 2,
        "name": "game_id!",
        "type_info": "Int4"
      },
      {
        "ordinal": 3,
        "name": "mode_id!",
        "type_info": "Int4"
      },
      {
        "ordinal": 4,
        "name": "ranking?",
        "type_info": "Int4"
      },
      {
        "ordinal": 5,
        "name": "ranking_points?",
        "type_info": "Int4"
      }
    ],
    "parameters": {
      "Left": [
        "Timestamptz",
        "Int4",
        "Text"
      ]
    },
    "nullable": [
      null,
      null,
      false,
      false,
      null,
      null
    ]
  },
  "hash": "41961704a44723df2035616c345ec47a67e6e9f1482ecd27b4982c286e9becd2"
}
