{
  "db_name": "PostgreSQL",
  "query": "\nSELECT\n    t.team_id as \"team_id!\",\n    t.name as \"name!\",\n    ARRAY_AGG((p.player_id, p.player_name, p.avatar_file, p.location_id, p.location)) AS \"members!: Vec<PlayerEntity2>\"\nFROM public.team t\nJOIN public.team_account ta USING (team_id)\nJOIN public.player p ON ta.account_id = p.player_id\nWHERE t.mode_id = $1\nGROUP BY t.team_id;\n            ",
  "describe": {
    "columns": [
      {
        "ordinal": 0,
        "name": "team_id!",
        "type_info": "Int4"
      },
      {
        "ordinal": 1,
        "name": "name!",
        "type_info": "Varchar"
      },
      {
        "ordinal": 2,
        "name": "members!: Vec<PlayerEntity2>",
        "type_info": "RecordArray"
      }
    ],
    "parameters": {
      "Left": [
        "Int4"
      ]
    },
    "nullable": [
      false,
      false,
      null
    ]
  },
  "hash": "34f4c60b3523223d22e8e5dadd8c81fc676afe598c32f00e279a70182c02c114"
}
