{
  "db_name": "PostgreSQL",
  "query": "SELECT settings AS \"settings: sqlx::types::Json<PlayerSettingsEntity>\" FROM account WHERE player_id = $1",
  "describe": {
    "columns": [
      {
        "ordinal": 0,
        "name": "settings: sqlx::types::Json<PlayerSettingsEntity>",
        "type_info": "Jsonb"
      }
    ],
    "parameters": {
      "Left": [
        "Int4"
      ]
    },
    "nullable": [
      false
    ]
  },
  "hash": "98f95e5ce119a02addaa4daa0fe58766af8417e73a12f97218a0d0e9728fe2d2"
}
