{
  "db_name": "PostgreSQL",
  "query": "DELETE FROM public.rival WHERE player_id = $1 AND rival_player_id = $2 RETURNING rival_id, player_id, rival_player_id",
  "describe": {
    "columns": [
      {
        "ordinal": 0,
        "name": "rival_id",
        "type_info": "Int4"
      },
      {
        "ordinal": 1,
        "name": "player_id",
        "type_info": "Int4"
      },
      {
        "ordinal": 2,
        "name": "rival_player_id",
        "type_info": "Int4"
      }
    ],
    "parameters": {
      "Left": [
        "Int4",
        "Int4"
      ]
    },
    "nullable": [
      false,
      false,
      false
    ]
  },
  "hash": "a9854845c636ae86fd69009df1f49a1fdf57c37087766caa134e22e2f24ea697"
}
